{
  "version": 6,
  "cmakeMinimumRequired": {
    "major": 3,
    "minor": 25,
    "patch": 0
  },
  "configurePresets": [
    {
      "name": "cxx-root",
      "hidden": true,
      "displayName": "cxx base",
      "description": "Base for cxx builds",
      "generator": "Ninja",
      "cacheVariables": {
        "PROP_FRAMEWORK_BUILD_TESTS": "ON",
        "PROP_FRAMEWORK_BUILD_DOCS": "ON",
        "PROP_FRAMEWORK_BUILD_EXAMPLES": "ON"
      }
    },
    {
      "inherits": "cxx-root",
      "binaryDir": "${sourceDir}/build/debug",
      "name": "debug",
      "displayName": "Debug",
      "description": "Debug build",
      "generator": "Ninja",
      "cacheVariables": {
        "CMAKE_BUILD_TYPE": "Debug"
      }
    },
    {
      "inherits": "cxx-root",
      "binaryDir": "${sourceDir}/build/release",
      "name": "release",
      "displayName": "Release",
      "description": "Release build",
      "generator": "Ninja",
      "cacheVariables": {
        "CMAKE_BUILD_TYPE": "Release"
      }
    }
  ]
}